{
	"credit": "Made with Blockbench",
	"ambientocclusion": false,
	"textures": {
		"particle": "block/iron_bars",
		"bars": "block/iron_bars"
	},
	"elements": [
		{
			"from": [7, 15, 9],
			"to": [9, 16, 16],
			"faces": {
				"east": {"uv": [8, 9, 9, 16], "rotation": 90, "texture": "#bars"},
				"south": {"uv": [7, 0, 9, 1], "texture": "#bars"},
				"west": {"uv": [7, 9, 8, 16], "rotation": 90, "texture": "#bars"},
				"up": {"uv": [7, 9, 9, 16], "texture": "#bars"},
				"down": {"uv": [7, 9, 9, 16], "texture": "#bars"}
			}
		},
		{
			"from": [7, 0, 9],
			"to": [9, 1, 16],
			"faces": {
				"east": {"uv": [8, 9, 9, 16], "rotation": 90, "texture": "#bars"},
				"south": {"uv": [7, 15, 9, 16], "texture": "#bars"},
				"west": {"uv": [7, 9, 8, 16], "rotation": 90, "texture": "#bars"},
				"up": {"uv": [7, 9, 9, 16], "texture": "#bars"},
				"down": {"uv": [7, 9, 9, 16], "texture": "#bars"}
			}
		},
		{
			"from": [7, 0, 8],
			"to": [9, 16, 9],
			"faces": {
				"north": {"uv": [12, 0, 14, 16], "texture": "#bars"},
				"east": {"uv": [7, 0, 8, 16], "texture": "#bars"},
				"south": {"uv": [12, 0, 14, 16], "texture": "#bars"},
				"west": {"uv": [7, 0, 8, 16], "texture": "#bars"},
				"up": {"uv": [7, 8, 9, 9], "texture": "#bars"},
				"down": {"uv": [7, 8, 9, 9], "texture": "#bars"}
			}
		},
		{
			"from": [7, 1, 12],
			"to": [9, 15, 14],
			"faces": {
				"north": {"uv": [7, 1, 9, 15], "rotation": 180, "texture": "#bars"},
				"east": {"uv": [2, 1, 4, 15], "texture": "#bars"},
				"south": {"uv": [7, 1, 9, 15], "rotation": 180, "texture": "#bars"},
				"west": {"uv": [2, 1, 4, 15], "texture": "#bars"}
			}
		},
		{
			"from": [7, 12, 9],
			"to": [9, 14, 12],
			"faces": {
				"east": {"uv": [4, 2, 7, 4], "texture": "#bars"},
				"west": {"uv": [4, 2, 7, 4], "texture": "#bars"},
				"up": {"uv": [4, 2, 7, 4], "rotation": 90, "texture": "#bars"},
				"down": {"uv": [4, 2, 7, 4], "rotation": 90, "texture": "#bars"}
			}
		},
		{
			"from": [7, 7, 14],
			"to": [9, 9, 16],
			"faces": {
				"east": {"uv": [0, 7, 2, 9], "texture": "#bars"},
				"south": {"uv": [0, 7, 2, 9], "texture": "#bars"},
				"west": {"uv": [0, 7, 2, 9], "texture": "#bars"},
				"up": {"uv": [0, 7, 2, 9], "texture": "#bars"},
				"down": {"uv": [0, 7, 2, 9], "texture": "#bars"}
			}
		}
	]
}