{
	"credit": "Made with Blockbench",
	"textures": {
		"0": "block/powered_rail",
		"particle": "block/powered_rail"
	},
	"elements": [
		{
			"from": [2, 0, -1],
			"to": [5, 1, 16],
			"rotation": {"angle": 45, "axis": "x", "origin": [0, 0, 16], "rescale": true},
			"faces": {
				"north": {"uv": [11, 15, 14, 16], "texture": "#0"},
				"east": {"uv": [11, 0, 12, 16], "rotation": 270, "texture": "#0"},
				"south": {"uv": [2, 0, 5, 1], "texture": "#0"},
				"west": {"uv": [13, 0, 14, 16], "rotation": 90, "texture": "#0"},
				"up": {"uv": [2, 0, 5, 16], "texture": "#0"},
				"down": {"uv": [2, 0, 5, 16], "texture": "#0"}
			}
		},
		{
			"from": [11, 0, -1],
			"to": [14, 1, 16],
			"rotation": {"angle": 45, "axis": "x", "origin": [0, 0, 16], "rescale": true},
			"faces": {
				"north": {"uv": [2, 15, 5, 16], "texture": "#0"},
				"east": {"uv": [2, 0, 3, 16], "rotation": 90, "texture": "#0"},
				"south": {"uv": [11, 0, 14, 1], "texture": "#0"},
				"west": {"uv": [4, 0, 5, 16], "rotation": 90, "texture": "#0"},
				"up": {"uv": [11, 0, 14, 16], "texture": "#0"},
				"down": {"uv": [11, 0, 14, 16], "texture": "#0"}
			}
		},
		{
			"from": [7, -1, 2],
			"to": [9, 0, 4],
			"rotation": {"angle": 45, "axis": "x", "origin": [0, 0, 16], "rescale": true},
			"faces": {
				"east": {"uv": [7, 4, 9, 5], "texture": "#0"},
				"west": {"uv": [7, 3, 9, 4], "texture": "#0"},
				"up": {"uv": [7, 11, 9, 13], "texture": "#0"},
				"down": {"uv": [7, 3, 9, 5], "texture": "#0"}
			}
		},
		{
			"from": [7, -1, 6],
			"to": [9, 0, 8],
			"rotation": {"angle": 45, "axis": "x", "origin": [0, 0, 16], "rescale": true},
			"faces": {
				"east": {"uv": [7, 8, 9, 9], "texture": "#0"},
				"west": {"uv": [7, 7, 9, 8], "texture": "#0"},
				"up": {"uv": [7, 7, 9, 9], "texture": "#0"},
				"down": {"uv": [7, 7, 9, 9], "texture": "#0"}
			}
		},
		{
			"from": [7, -1, 10],
			"to": [9, 0, 12],
			"rotation": {"angle": 45, "axis": "x", "origin": [0, 0, 16], "rescale": true},
			"faces": {
				"east": {"uv": [7, 12, 9, 13], "texture": "#0"},
				"west": {"uv": [7, 11, 9, 12], "texture": "#0"},
				"up": {"uv": [7, 3, 9, 5], "texture": "#0"},
				"down": {"uv": [7, 11, 9, 13], "texture": "#0"}
			}
		},
		{
			"from": [5, -1, 12],
			"to": [11, 0, 14],
			"rotation": {"angle": 45, "axis": "x", "origin": [0, 0, 16], "rescale": true},
			"faces": {
				"north": {"uv": [5, 13, 11, 14], "texture": "#0"},
				"south": {"uv": [5, 2, 11, 3], "texture": "#0"},
				"up": {"uv": [5, 1, 11, 3], "texture": "#0"},
				"down": {"uv": [5, 13, 11, 15], "rotation": 180, "texture": "#0"}
			}
		},
		{
			"from": [5, -1, 8],
			"to": [11, 0, 10],
			"rotation": {"angle": 45, "axis": "x", "origin": [0, 0, 16], "rescale": true},
			"faces": {
				"north": {"uv": [5, 9, 11, 10], "texture": "#0"},
				"south": {"uv": [5, 6, 11, 7], "texture": "#0"},
				"up": {"uv": [5, 5, 11, 7], "texture": "#0"},
				"down": {"uv": [5, 9, 11, 11], "rotation": 180, "texture": "#0"}
			}
		},
		{
			"from": [5, -1, 4],
			"to": [11, 0, 6],
			"rotation": {"angle": 45, "axis": "x", "origin": [0, 0, 16], "rescale": true},
			"faces": {
				"north": {"uv": [5, 5, 11, 6], "texture": "#0"},
				"south": {"uv": [5, 10, 11, 11], "texture": "#0"},
				"up": {"uv": [5, 9, 11, 11], "texture": "#0"},
				"down": {"uv": [5, 5, 11, 7], "rotation": 180, "texture": "#0"}
			}
		},
		{
			"from": [5, -1, 0],
			"to": [11, 0, 2],
			"rotation": {"angle": 45, "axis": "x", "origin": [0, 0, 16], "rescale": true},
			"faces": {
				"north": {"uv": [5, 1, 11, 2], "texture": "#0"},
				"south": {"uv": [5, 14, 11, 15], "texture": "#0"},
				"up": {"uv": [5, 13, 11, 15], "texture": "#0"},
				"down": {"uv": [5, 1, 11, 3], "rotation": 180, "texture": "#0"}
			}
		},
		{
			"from": [2, -1, 8],
			"to": [5, 0, 10],
			"rotation": {"angle": 45, "axis": "x", "origin": [0, 0, 16], "rescale": true},
			"faces": {
				"north": {"uv": [7, 9, 10, 10], "texture": "#0"},
				"south": {"uv": [7, 6, 10, 7], "texture": "#0"},
				"up": {"uv": [0, 0, 3, 2], "texture": "#missing"},
				"down": {"uv": [7, 9, 10, 11], "rotation": 180, "texture": "#0"}
			}
		},
		{
			"from": [2, -1, 12],
			"to": [5, 0, 14],
			"rotation": {"angle": 45, "axis": "x", "origin": [0, 0, 16], "rescale": true},
			"faces": {
				"north": {"uv": [7, 13, 10, 14], "texture": "#0"},
				"south": {"uv": [7, 2, 10, 3], "texture": "#0"},
				"up": {"uv": [0, 0, 3, 2], "texture": "#missing"},
				"down": {"uv": [7, 13, 10, 15], "rotation": 180, "texture": "#0"}
			}
		},
		{
			"from": [2, -1, 4],
			"to": [5, 0, 6],
			"rotation": {"angle": 45, "axis": "x", "origin": [0, 0, 16], "rescale": true},
			"faces": {
				"north": {"uv": [7, 5, 10, 6], "texture": "#0"},
				"south": {"uv": [7, 10, 10, 11], "texture": "#0"},
				"up": {"uv": [0, 0, 3, 2], "texture": "#missing"},
				"down": {"uv": [7, 5, 10, 7], "rotation": 180, "texture": "#0"}
			}
		},
		{
			"from": [2, -1, 0],
			"to": [5, 0, 2],
			"rotation": {"angle": 45, "axis": "x", "origin": [0, 0, 16], "rescale": true},
			"faces": {
				"north": {"uv": [7, 1, 10, 2], "texture": "#0"},
				"south": {"uv": [7, 14, 10, 15], "texture": "#0"},
				"up": {"uv": [0, 0, 3, 2], "texture": "#missing"},
				"down": {"uv": [7, 1, 10, 3], "rotation": 180, "texture": "#0"}
			}
		},
		{
			"from": [11, -1, 8],
			"to": [14, 0, 10],
			"rotation": {"angle": 45, "axis": "x", "origin": [0, 0, 16], "rescale": true},
			"faces": {
				"north": {"uv": [6, 9, 9, 10], "texture": "#0"},
				"south": {"uv": [6, 6, 9, 7], "texture": "#0"},
				"up": {"uv": [0, 0, 3, 2], "texture": "#missing"},
				"down": {"uv": [6, 9, 9, 11], "rotation": 180, "texture": "#0"}
			}
		},
		{
			"from": [11, -1, 4],
			"to": [14, 0, 6],
			"rotation": {"angle": 45, "axis": "x", "origin": [0, 0, 16], "rescale": true},
			"faces": {
				"north": {"uv": [6, 5, 9, 6], "texture": "#0"},
				"south": {"uv": [6, 10, 9, 11], "texture": "#0"},
				"up": {"uv": [0, 0, 3, 2], "texture": "#missing"},
				"down": {"uv": [6, 5, 9, 7], "rotation": 180, "texture": "#0"}
			}
		},
		{
			"from": [11, -1, 0],
			"to": [14, 0, 2],
			"rotation": {"angle": 45, "axis": "x", "origin": [0, 0, 16], "rescale": true},
			"faces": {
				"north": {"uv": [6, 1, 9, 2], "texture": "#0"},
				"south": {"uv": [6, 14, 9, 15], "texture": "#0"},
				"up": {"uv": [0, 0, 3, 2], "texture": "#missing"},
				"down": {"uv": [6, 1, 9, 3], "rotation": 180, "texture": "#0"}
			}
		},
		{
			"from": [11, -1, 12],
			"to": [14, 0, 14],
			"rotation": {"angle": 45, "axis": "x", "origin": [0, 0, 16], "rescale": true},
			"faces": {
				"north": {"uv": [6, 13, 9, 14], "texture": "#0"},
				"south": {"uv": [6, 2, 9, 3], "texture": "#0"},
				"up": {"uv": [0, 0, 3, 2], "texture": "#missing"},
				"down": {"uv": [6, 13, 9, 15], "rotation": 180, "texture": "#0"}
			}
		},
		{
			"from": [14, -1, 8],
			"to": [15, 0, 10],
			"rotation": {"angle": 45, "axis": "x", "origin": [0, 0, 16], "rescale": true},
			"faces": {
				"north": {"uv": [1, 5, 2, 6], "texture": "#0"},
				"east": {"uv": [7, 5, 9, 6], "texture": "#0"},
				"south": {"uv": [1, 6, 2, 7], "texture": "#0"},
				"up": {"uv": [1, 5, 2, 7], "texture": "#0"},
				"down": {"uv": [1, 9, 2, 11], "rotation": 180, "texture": "#0"}
			}
		},
		{
			"from": [14, -1, 4],
			"to": [15, 0, 6],
			"rotation": {"angle": 45, "axis": "x", "origin": [0, 0, 16], "rescale": true},
			"faces": {
				"north": {"uv": [1, 10, 2, 11], "texture": "#0"},
				"east": {"uv": [7, 9, 9, 10], "texture": "#0"},
				"south": {"uv": [1, 10, 2, 11], "texture": "#0"},
				"up": {"uv": [1, 9, 2, 11], "texture": "#0"},
				"down": {"uv": [1, 5, 2, 7], "rotation": 180, "texture": "#0"}
			}
		},
		{
			"from": [14, -1, 0],
			"to": [15, 0, 2],
			"rotation": {"angle": 45, "axis": "x", "origin": [0, 0, 16], "rescale": true},
			"faces": {
				"north": {"uv": [1, 1, 2, 2], "texture": "#0"},
				"east": {"uv": [7, 13, 9, 14], "texture": "#0"},
				"south": {"uv": [14, 2, 15, 3], "texture": "#0"},
				"up": {"uv": [1, 13, 2, 15], "texture": "#0"},
				"down": {"uv": [1, 1, 2, 3], "rotation": 180, "texture": "#0"}
			}
		},
		{
			"from": [14, -1, 12],
			"to": [15, 0, 14],
			"rotation": {"angle": 45, "axis": "x", "origin": [0, 0, 16], "rescale": true},
			"faces": {
				"north": {"uv": [1, 13, 2, 14], "texture": "#0"},
				"east": {"uv": [7, 1, 9, 2], "texture": "#0"},
				"south": {"uv": [1, 14, 2, 15], "texture": "#0"},
				"up": {"uv": [1, 1, 2, 3], "texture": "#0"},
				"down": {"uv": [1, 13, 2, 15], "rotation": 180, "texture": "#0"}
			}
		},
		{
			"from": [1, -1, 8],
			"to": [2, 0, 10],
			"rotation": {"angle": 45, "axis": "x", "origin": [0, 0, 16], "rescale": true},
			"faces": {
				"north": {"uv": [14, 9, 15, 10], "texture": "#0"},
				"south": {"uv": [14, 10, 15, 11], "texture": "#0"},
				"west": {"uv": [7, 10, 9, 11], "texture": "#0"},
				"up": {"uv": [14, 5, 15, 7], "texture": "#0"},
				"down": {"uv": [14, 9, 15, 11], "rotation": 180, "texture": "#0"}
			}
		},
		{
			"from": [1, -1, 4],
			"to": [2, 0, 6],
			"rotation": {"angle": 45, "axis": "x", "origin": [0, 0, 16], "rescale": true},
			"faces": {
				"north": {"uv": [14, 5, 15, 6], "texture": "#0"},
				"south": {"uv": [14, 6, 15, 7], "texture": "#0"},
				"west": {"uv": [7, 6, 9, 7], "texture": "#0"},
				"up": {"uv": [14, 9, 15, 11], "texture": "#0"},
				"down": {"uv": [14, 5, 15, 7], "rotation": 180, "texture": "#0"}
			}
		},
		{
			"from": [1, -1, 0],
			"to": [2, 0, 2],
			"rotation": {"angle": 45, "axis": "x", "origin": [0, 0, 16], "rescale": true},
			"faces": {
				"north": {"uv": [14, 1, 15, 2], "texture": "#0"},
				"south": {"uv": [14, 2, 15, 3], "texture": "#0"},
				"west": {"uv": [7, 2, 9, 3], "texture": "#0"},
				"up": {"uv": [14, 1, 15, 3], "texture": "#0"},
				"down": {"uv": [14, 1, 15, 3], "rotation": 180, "texture": "#0"}
			}
		},
		{
			"from": [1, -1, 12],
			"to": [2, 0, 14],
			"rotation": {"angle": 45, "axis": "x", "origin": [0, 0, 16], "rescale": true},
			"faces": {
				"north": {"uv": [14, 13, 15, 14], "texture": "#0"},
				"south": {"uv": [14, 14, 15, 15], "texture": "#0"},
				"west": {"uv": [7, 14, 9, 15], "texture": "#0"},
				"up": {"uv": [14, 1, 15, 3], "texture": "#0"},
				"down": {"uv": [14, 13, 15, 15], "rotation": 180, "texture": "#0"}
			}
		}
	],
	"groups": [
		{
			"name": "group",
			"origin": [0, 0, 0],
			"children": [0, 1, 2, 3, 4, 5, 6, 7, 8, 9, 10, 11, 12, 13, 14, 15, 16, 17, 18, 19, 20, 21, 22, 23, 24]
		}
	]
}