{
	"credit": "Made with Blockbench",
	"textures": {
		"1": "block/rail",
		"particle": "block/rail"
	},
	"elements": [
		{
			"from": [2, 0, -1],
			"to": [4, 1, 16],
			"rotation": {"angle": 45, "axis": "x", "origin": [0, 0, 16], "rescale": true},
			"faces": {
				"north": {"uv": [12, 15, 14, 16], "texture": "#1"},
				"east": {"uv": [12, 0, 13, 16], "rotation": 270, "texture": "#1"},
				"south": {"uv": [2, 0, 4, 1], "texture": "#1"},
				"west": {"uv": [13, 0, 14, 16], "rotation": 90, "texture": "#1"},
				"up": {"uv": [2, 0, 4, 16], "texture": "#1"},
				"down": {"uv": [2, 0, 4, 16], "texture": "#1"}
			}
		},
		{
			"from": [12, 0, -1],
			"to": [14, 1, 16],
			"rotation": {"angle": 45, "axis": "x", "origin": [0, 0, 16], "rescale": true},
			"faces": {
				"north": {"uv": [2, 15, 4, 16], "texture": "#1"},
				"east": {"uv": [2, 0, 3, 16], "rotation": 90, "texture": "#1"},
				"south": {"uv": [12, 0, 14, 1], "texture": "#1"},
				"west": {"uv": [3, 0, 4, 16], "rotation": 90, "texture": "#1"},
				"up": {"uv": [12, 0, 14, 16], "texture": "#1"},
				"down": {"uv": [12, 0, 14, 16], "texture": "#1"}
			}
		},
		{
			"from": [4, -1, 12],
			"to": [12, 0, 14],
			"rotation": {"angle": 45, "axis": "x", "origin": [0, 0, 16], "rescale": true},
			"faces": {
				"north": {"uv": [4, 13, 12, 14], "texture": "#1"},
				"east": {"uv": [0, 0, 0, 0], "texture": "#1"},
				"south": {"uv": [4, 2, 12, 3], "texture": "#1"},
				"west": {"uv": [0, 0, 0, 0], "texture": "#1"},
				"up": {"uv": [4, 1, 12, 3], "texture": "#1"},
				"down": {"uv": [4, 13, 12, 15], "rotation": 180, "texture": "#1"}
			}
		},
		{
			"from": [4, -1, 8],
			"to": [12, 0, 10],
			"rotation": {"angle": 45, "axis": "x", "origin": [0, 0, 16], "rescale": true},
			"faces": {
				"north": {"uv": [4, 9, 12, 10], "texture": "#1"},
				"east": {"uv": [0, 0, 0, 0], "texture": "#1"},
				"south": {"uv": [4, 6, 12, 7], "texture": "#1"},
				"west": {"uv": [0, 0, 0, 0], "texture": "#1"},
				"up": {"uv": [4, 5, 12, 7], "texture": "#1"},
				"down": {"uv": [4, 9, 12, 11], "rotation": 180, "texture": "#1"}
			}
		},
		{
			"from": [4, -1, 4],
			"to": [12, 0, 6],
			"rotation": {"angle": 45, "axis": "x", "origin": [0, 0, 16], "rescale": true},
			"faces": {
				"north": {"uv": [4, 5, 12, 6], "texture": "#1"},
				"east": {"uv": [0, 0, 0, 0], "texture": "#1"},
				"south": {"uv": [4, 10, 12, 11], "texture": "#1"},
				"west": {"uv": [0, 0, 0, 0], "texture": "#1"},
				"up": {"uv": [4, 9, 12, 11], "texture": "#1"},
				"down": {"uv": [4, 5, 12, 7], "rotation": 180, "texture": "#1"}
			}
		},
		{
			"from": [4, -1, 0],
			"to": [12, 0, 2],
			"rotation": {"angle": 45, "axis": "x", "origin": [0, 0, 16], "rescale": true},
			"faces": {
				"north": {"uv": [4, 1, 12, 2], "texture": "#1"},
				"east": {"uv": [0, 0, 0, 0], "texture": "#1"},
				"south": {"uv": [4, 14, 12, 15], "texture": "#1"},
				"west": {"uv": [0, 0, 0, 0], "texture": "#1"},
				"up": {"uv": [4, 13, 12, 15], "texture": "#1"},
				"down": {"uv": [4, 1, 12, 3], "rotation": 180, "texture": "#1"}
			}
		},
		{
			"from": [2, -1, 8],
			"to": [4, 0, 10],
			"rotation": {"angle": 45, "axis": "x", "origin": [0, 0, 16], "rescale": true},
			"faces": {
				"north": {"uv": [7, 9, 9, 10], "texture": "#1"},
				"east": {"uv": [0, 0, 0, 0], "texture": "#1"},
				"south": {"uv": [7, 6, 9, 7], "texture": "#1"},
				"west": {"uv": [0, 0, 0, 0], "texture": "#1"},
				"up": {"uv": [0, 0, 2, 2], "texture": "#1"},
				"down": {"uv": [7, 9, 9, 11], "rotation": 180, "texture": "#1"}
			}
		},
		{
			"from": [2, -1, 12],
			"to": [4, 0, 14],
			"rotation": {"angle": 45, "axis": "x", "origin": [0, 0, 16], "rescale": true},
			"faces": {
				"north": {"uv": [7, 13, 9, 14], "texture": "#1"},
				"east": {"uv": [0, 0, 0, 0], "texture": "#1"},
				"south": {"uv": [7, 2, 9, 3], "texture": "#1"},
				"west": {"uv": [0, 0, 0, 0], "texture": "#1"},
				"up": {"uv": [0, 0, 2, 2], "texture": "#1"},
				"down": {"uv": [7, 13, 10, 15], "rotation": 180, "texture": "#1"}
			}
		},
		{
			"from": [2, -1, 4],
			"to": [4, 0, 6],
			"rotation": {"angle": 45, "axis": "x", "origin": [0, 0, 16], "rescale": true},
			"faces": {
				"north": {"uv": [7, 5, 9, 6], "texture": "#1"},
				"east": {"uv": [0, 0, 0, 0], "texture": "#1"},
				"south": {"uv": [7, 10, 9, 11], "texture": "#1"},
				"west": {"uv": [0, 0, 0, 0], "texture": "#1"},
				"up": {"uv": [0, 0, 2, 2], "texture": "#1"},
				"down": {"uv": [7, 5, 9, 7], "rotation": 180, "texture": "#1"}
			}
		},
		{
			"from": [2, -1, 0],
			"to": [4, 0, 2],
			"rotation": {"angle": 45, "axis": "x", "origin": [0, 0, 16], "rescale": true},
			"faces": {
				"north": {"uv": [7, 1, 9, 2], "texture": "#1"},
				"east": {"uv": [0, 0, 0, 0], "texture": "#1"},
				"south": {"uv": [7, 14, 9, 15], "texture": "#1"},
				"west": {"uv": [0, 0, 0, 0], "texture": "#1"},
				"up": {"uv": [0, 0, 2, 2], "texture": "#1"},
				"down": {"uv": [7, 1, 9, 3], "rotation": 180, "texture": "#1"}
			}
		},
		{
			"from": [12, -1, 8],
			"to": [14, 0, 10],
			"rotation": {"angle": 45, "axis": "x", "origin": [0, 0, 16], "rescale": true},
			"faces": {
				"north": {"uv": [6, 9, 8, 10], "texture": "#1"},
				"east": {"uv": [0, 0, 0, 0], "texture": "#1"},
				"south": {"uv": [6, 6, 8, 7], "texture": "#1"},
				"west": {"uv": [0, 0, 0, 0], "texture": "#1"},
				"up": {"uv": [0, 0, 2, 2], "texture": "#1"},
				"down": {"uv": [6, 9, 8, 11], "rotation": 180, "texture": "#1"}
			}
		},
		{
			"from": [12, -1, 4],
			"to": [14, 0, 6],
			"rotation": {"angle": 45, "axis": "x", "origin": [0, 0, 16], "rescale": true},
			"faces": {
				"north": {"uv": [6, 5, 8, 6], "texture": "#1"},
				"east": {"uv": [0, 0, 0, 0], "texture": "#1"},
				"south": {"uv": [6, 10, 8, 11], "texture": "#1"},
				"west": {"uv": [0, 0, 0, 0], "texture": "#1"},
				"up": {"uv": [0, 0, 2, 2], "texture": "#1"},
				"down": {"uv": [6, 5, 8, 7], "rotation": 180, "texture": "#1"}
			}
		},
		{
			"from": [12, -1, 0],
			"to": [14, 0, 2],
			"rotation": {"angle": 45, "axis": "x", "origin": [0, 0, 16], "rescale": true},
			"faces": {
				"north": {"uv": [6, 1, 8, 2], "texture": "#1"},
				"east": {"uv": [0, 0, 0, 0], "texture": "#1"},
				"south": {"uv": [6, 14, 8, 15], "texture": "#1"},
				"west": {"uv": [0, 0, 0, 0], "texture": "#1"},
				"up": {"uv": [0, 0, 2, 2], "texture": "#1"},
				"down": {"uv": [6, 1, 8, 3], "rotation": 180, "texture": "#1"}
			}
		},
		{
			"from": [12, -1, 12],
			"to": [14, 0, 14],
			"rotation": {"angle": 45, "axis": "x", "origin": [0, 0, 16], "rescale": true},
			"faces": {
				"north": {"uv": [6, 13, 8, 14], "texture": "#1"},
				"east": {"uv": [0, 0, 0, 0], "texture": "#1"},
				"south": {"uv": [6, 2, 8, 3], "texture": "#1"},
				"west": {"uv": [0, 0, 0, 0], "texture": "#1"},
				"up": {"uv": [0, 0, 2, 2], "texture": "#1"},
				"down": {"uv": [6, 13, 8, 15], "rotation": 180, "texture": "#1"}
			}
		},
		{
			"from": [14, -1, 8],
			"to": [15, 0, 10],
			"rotation": {"angle": 45, "axis": "x", "origin": [0, 0, 16], "rescale": true},
			"faces": {
				"north": {"uv": [1, 5, 2, 6], "texture": "#1"},
				"east": {"uv": [7, 5, 9, 6], "texture": "#1"},
				"south": {"uv": [1, 6, 2, 7], "texture": "#1"},
				"west": {"uv": [0, 0, 0, 0], "texture": "#1"},
				"up": {"uv": [1, 5, 2, 7], "texture": "#1"},
				"down": {"uv": [1, 9, 2, 11], "rotation": 180, "texture": "#1"}
			}
		},
		{
			"from": [14, -1, 4],
			"to": [15, 0, 6],
			"rotation": {"angle": 45, "axis": "x", "origin": [0, 0, 16], "rescale": true},
			"faces": {
				"north": {"uv": [1, 10, 2, 11], "texture": "#1"},
				"east": {"uv": [7, 9, 9, 10], "texture": "#1"},
				"south": {"uv": [1, 10, 2, 11], "texture": "#1"},
				"west": {"uv": [0, 0, 0, 0], "texture": "#1"},
				"up": {"uv": [1, 9, 2, 11], "texture": "#1"},
				"down": {"uv": [1, 5, 2, 7], "rotation": 180, "texture": "#1"}
			}
		},
		{
			"from": [14, -1, 0],
			"to": [15, 0, 2],
			"rotation": {"angle": 45, "axis": "x", "origin": [0, 0, 16], "rescale": true},
			"faces": {
				"north": {"uv": [1, 1, 2, 2], "texture": "#1"},
				"east": {"uv": [7, 13, 9, 14], "texture": "#1"},
				"south": {"uv": [14, 2, 15, 3], "texture": "#1"},
				"west": {"uv": [0, 0, 0, 0], "texture": "#1"},
				"up": {"uv": [1, 13, 2, 15], "texture": "#1"},
				"down": {"uv": [1, 1, 2, 3], "rotation": 180, "texture": "#1"}
			}
		},
		{
			"from": [14, -1, 12],
			"to": [15, 0, 14],
			"rotation": {"angle": 45, "axis": "x", "origin": [0, 0, 16], "rescale": true},
			"faces": {
				"north": {"uv": [1, 13, 2, 14], "texture": "#1"},
				"east": {"uv": [7, 1, 9, 2], "texture": "#1"},
				"south": {"uv": [1, 14, 2, 15], "texture": "#1"},
				"west": {"uv": [0, 0, 0, 0], "texture": "#1"},
				"up": {"uv": [1, 1, 2, 3], "texture": "#1"},
				"down": {"uv": [1, 13, 2, 15], "rotation": 180, "texture": "#1"}
			}
		},
		{
			"from": [1, -1, 8],
			"to": [2, 0, 10],
			"rotation": {"angle": 45, "axis": "x", "origin": [0, 0, 16], "rescale": true},
			"faces": {
				"north": {"uv": [14, 9, 15, 10], "texture": "#1"},
				"east": {"uv": [0, 0, 0, 0], "texture": "#1"},
				"south": {"uv": [14, 10, 15, 11], "texture": "#1"},
				"west": {"uv": [7, 10, 9, 11], "texture": "#1"},
				"up": {"uv": [14, 5, 15, 7], "texture": "#1"},
				"down": {"uv": [14, 9, 15, 11], "rotation": 180, "texture": "#1"}
			}
		},
		{
			"from": [1, -1, 4],
			"to": [2, 0, 6],
			"rotation": {"angle": 45, "axis": "x", "origin": [0, 0, 16], "rescale": true},
			"faces": {
				"north": {"uv": [14, 5, 15, 6], "texture": "#1"},
				"east": {"uv": [0, 0, 0, 0], "texture": "#1"},
				"south": {"uv": [14, 6, 15, 7], "texture": "#1"},
				"west": {"uv": [7, 6, 9, 7], "texture": "#1"},
				"up": {"uv": [14, 9, 15, 11], "texture": "#1"},
				"down": {"uv": [14, 5, 15, 7], "rotation": 180, "texture": "#1"}
			}
		},
		{
			"from": [1, -1, 0],
			"to": [2, 0, 2],
			"rotation": {"angle": 45, "axis": "x", "origin": [0, 0, 16], "rescale": true},
			"faces": {
				"north": {"uv": [14, 1, 15, 2], "texture": "#1"},
				"east": {"uv": [0, 0, 0, 0], "texture": "#1"},
				"south": {"uv": [14, 2, 15, 3], "texture": "#1"},
				"west": {"uv": [7, 2, 9, 3], "texture": "#1"},
				"up": {"uv": [14, 1, 15, 3], "texture": "#1"},
				"down": {"uv": [14, 1, 15, 3], "rotation": 180, "texture": "#1"}
			}
		},
		{
			"from": [1, -1, 12],
			"to": [2, 0, 14],
			"rotation": {"angle": 45, "axis": "x", "origin": [0, 0, 16], "rescale": true},
			"faces": {
				"north": {"uv": [14, 13, 15, 14], "texture": "#1"},
				"east": {"uv": [0, 0, 0, 0], "texture": "#1"},
				"south": {"uv": [14, 14, 15, 15], "texture": "#1"},
				"west": {"uv": [7, 14, 9, 15], "texture": "#1"},
				"up": {"uv": [14, 1, 15, 3], "texture": "#1"},
				"down": {"uv": [14, 13, 15, 15], "rotation": 180, "texture": "#1"}
			}
		}
	],
	"groups": [
		{
			"name": "group",
			"origin": [0, 0, 0],
			"children": [0, 1, 2, 3, 4, 5, 6, 7, 8, 9, 10, 11, 12, 13, 14, 15, 16, 17, 18, 19, 20, 21]
		}
	]
}